%YAML 1.1
%TAG !u! tag:unity3d.com,2011:
--- !u!1045 &1
EditorBuildSettings:
  m_ObjectHideFlags: 0
  serializedVersion: 2
  m_Scenes:
  - enabled: 1
    path: Assets/Scenes/Title.unity
    guid: 64fc63b44a37c4d428dd27c6ecfd887b
  - enabled: 1
    path: Assets/Scenes/Library.unity
    guid: f823b5b9fd730274b9c1e03e0b21e5ff
  - enabled: 1
    path: Assets/Scenes/GameOver.unity
    guid: a7fc4467fa453d64d8b18b5cc04c6724
